[
  {
    "tag": "Amazon"
  },
  {
    "tag": "BFF goals"
  },
  {
    "tag": "Bacon"
  },
  {
    "tag": "BigMac"
  },
  {
    "tag": "CD scratches"
  },
  {
    "tag": "CPR"
  },
  {
    "tag": "Calvin Klein"
  },
  {
    "tag": "Compliment"
  },
  {
    "tag": "DIY"
  },
  {
    "tag": "DIY's"
  },
  {
    "tag": "DUI"
  },
  {
    "tag": "DeTune progam"
  },
  {
    "tag": "Dew"
  },
  {
    "tag": "Extra bacon"
  },
  {
    "tag": "Extra cheese"
  },
  {
    "tag": "FBI"
  },
  {
    "tag": "Five Guys"
  },
  {
    "tag": "Google"
  },
  {
    "tag": "Google play"
  },
  {
    "tag": "Google tips"
  },
  {
    "tag": "Google translate"
  },
  {
    "tag": "IQ level"
  },
  {
    "tag": "Improve Productivity"
  },
  {
    "tag": "Love"
  },
  {
    "tag": "Mac hacks"
  },
  {
    "tag": "MacBook"
  },
  {
    "tag": "McDonald's"
  },
  {
    "tag": "McDonals"
  },
  {
    "tag": "McNuggets"
  },
  {
    "tag": "NASA"
  },
  {
    "tag": "NEWS"
  },
  {
    "tag": "New year"
  },
  {
    "tag": "Oreo"
  },
  {
    "tag": "Oreo facts"
  },
  {
    "tag": "Oreo hacks"
  },
  {
    "tag": "P&B hacks"
  },
  {
    "tag": "PC hacks"
  },
  {
    "tag": "PC tricks"
  },
  {
    "tag": "PDF"
  },
  {
    "tag": "SALE"
  },
  {
    "tag": "Siri"
  },
  {
    "tag": "Siri hacks"
  },
  {
    "tag": "Starbucks tips"
  },
  {
    "tag": "T shirt hacks"
  },
  {
    "tag": "TV commercials"
  },
  {
    "tag": "TV screen"
  },
  {
    "tag": "TV series"
  },
  {
    "tag": "Towing"
  },
  {
    "tag": "US military"
  },
  {
    "tag": "US police"
  },
  {
    "tag": "Useful Websites"
  },
  {
    "tag": "Vet"
  },
  {
    "tag": "Vodka"
  },
  {
    "tag": "Vodka shots"
  },
  {
    "tag": "Vodka tips"
  },
  {
    "tag": "WD-40"
  },
  {
    "tag": "Wi-Fi hacks"
  },
  {
    "tag": "WiFi hacks"
  },
  {
    "tag": "Xbox"
  },
  {
    "tag": "YouTube"
  },
  {
    "tag": "YouTube hacks"
  },
  {
    "tag": "YouTube tips"
  },
  {
    "tag": "YouTube trends"
  },
  {
    "tag": "YouTube video"
  },
  {
    "tag": "YouTube videos"
  },
  {
    "tag": "YoutTube videos"
  },
  {
    "tag": "abbrevations"
  },
  {
    "tag": "accident"
  },
  {
    "tag": "accidents"
  },
  {
    "tag": "acne-free"
  },
  {
    "tag": "acting"
  },
  {
    "tag": "actors"
  },
  {
    "tag": "admiration"
  },
  {
    "tag": "advertisements"
  },
  {
    "tag": "advice"
  },
  {
    "tag": "advises"
  },
  {
    "tag": "aesthetic"
  },
  {
    "tag": "afe mode"
  },
  {
    "tag": "affordability"
  },
  {
    "tag": "air containers"
  },
  {
    "tag": "air pressure"
  },
  {
    "tag": "airbags"
  },
  {
    "tag": "airplane hacks"
  },
  {
    "tag": "airplane mode"
  },
  {
    "tag": "airplane tips"
  },
  {
    "tag": "airport"
  },
  {
    "tag": "alarm"
  },
  {
    "tag": "alcohol"
  },
  {
    "tag": "alcohol drink"
  },
  {
    "tag": "alcohol hacks"
  },
  {
    "tag": "alcohol tips"
  },
  {
    "tag": "aluminum foil"
  },
  {
    "tag": "amazon prime"
  },
  {
    "tag": "amplify sound"
  },
  {
    "tag": "amplify volume"
  },
  {
    "tag": "android"
  },
  {
    "tag": "android hacks"
  },
  {
    "tag": "android tricks"
  },
  {
    "tag": "angry"
  },
  {
    "tag": "animal care"
  },
  {
    "tag": "animals"
  },
  {
    "tag": "annoying customers"
  },
  {
    "tag": "answer"
  },
  {
    "tag": "answer calls"
  },
  {
    "tag": "answering machines"
  },
  {
    "tag": "answers"
  },
  {
    "tag": "ants"
  },
  {
    "tag": "anxiety"
  },
  {
    "tag": "apple cidar vinegar"
  },
  {
    "tag": "apple cider vinegar"
  },
  {
    "tag": "apple hacks"
  },
  {
    "tag": "apple juice"
  },
  {
    "tag": "aquamarine"
  },
  {
    "tag": "argument"
  },
  {
    "tag": "arrange"
  },
  {
    "tag": "ashes"
  },
  {
    "tag": "ask questions"
  },
  {
    "tag": "asleep"
  },
  {
    "tag": "aspirin"
  },
  {
    "tag": "aspirin tips"
  },
  {
    "tag": "assemble"
  },
  {
    "tag": "assemble things"
  },
  {
    "tag": "assignment"
  },
  {
    "tag": "autombiles"
  },
  {
    "tag": "avoid bees"
  },
  {
    "tag": "avoid cramps"
  },
  {
    "tag": "avoid errors"
  },
  {
    "tag": "baby hacks"
  },
  {
    "tag": "baby powder"
  },
  {
    "tag": "baby shampoo"
  },
  {
    "tag": "bacon tips"
  },
  {
    "tag": "bacteria"
  },
  {
    "tag": "bad breath"
  },
  {
    "tag": "bad company"
  },
  {
    "tag": "bad habits"
  },
  {
    "tag": "bad handwriting"
  },
  {
    "tag": "bad health"
  },
  {
    "tag": "bad mood"
  },
  {
    "tag": "bagel holder"
  },
  {
    "tag": "bake cookies"
  },
  {
    "tag": "bake muffins"
  },
  {
    "tag": "baked goods"
  },
  {
    "tag": "baking"
  },
  {
    "tag": "baking cookies"
  },
  {
    "tag": "baking soda tips"
  },
  {
    "tag": "balance"
  },
  {
    "tag": "balloon"
  },
  {
    "tag": "balloons"
  },
  {
    "tag": "banana"
  },
  {
    "tag": "bar"
  },
  {
    "tag": "barbecue"
  },
  {
    "tag": "barbecue sauce"
  },
  {
    "tag": "barrel roll"
  },
  {
    "tag": "bars"
  },
  {
    "tag": "bartender"
  },
  {
    "tag": "barteneder"
  },
  {
    "tag": "batter"
  },
  {
    "tag": "batteries running out"
  },
  {
    "tag": "battery"
  },
  {
    "tag": "battery life"
  },
  {
    "tag": "be awesome!"
  },
  {
    "tag": "be beautiful"
  },
  {
    "tag": "be friend"
  },
  {
    "tag": "be kind"
  },
  {
    "tag": "be thankful"
  },
  {
    "tag": "beach"
  },
  {
    "tag": "beach tips"
  },
  {
    "tag": "beatboxing"
  },
  {
    "tag": "beauty"
  },
  {
    "tag": "beauty hacks"
  },
  {
    "tag": "beauty tips"
  },
  {
    "tag": "bed"
  },
  {
    "tag": "bed bugs"
  },
  {
    "tag": "bee gees"
  },
  {
    "tag": "beer table"
  },
  {
    "tag": "behavioural"
  },
  {
    "tag": "believer"
  },
  {
    "tag": "better conversation"
  },
  {
    "tag": "better human beings"
  },
  {
    "tag": "bibliography"
  },
  {
    "tag": "biggger"
  },
  {
    "tag": "bills"
  },
  {
    "tag": "binder clips"
  },
  {
    "tag": "binge"
  },
  {
    "tag": "biodegradable"
  },
  {
    "tag": "bird"
  },
  {
    "tag": "birds"
  },
  {
    "tag": "birthday cards"
  },
  {
    "tag": "birthday gifts"
  },
  {
    "tag": "birthday hacks"
  },
  {
    "tag": "birthday vibes"
  },
  {
    "tag": "birthdays"
  },
  {
    "tag": "blackheads"
  },
  {
    "tag": "blast"
  },
  {
    "tag": "blemishes"
  },
  {
    "tag": "bliss"
  },
  {
    "tag": "blood pressure"
  },
  {
    "tag": "blue eyes"
  },
  {
    "tag": "body position"
  },
  {
    "tag": "boiled eggs"
  },
  {
    "tag": "boiling water"
  },
  {
    "tag": "bomb sodas"
  },
  {
    "tag": "booking flights"
  },
  {
    "tag": "books"
  },
  {
    "tag": "boost strength"
  },
  {
    "tag": "bored"
  },
  {
    "tag": "brain freeze"
  },
  {
    "tag": "brain health"
  },
  {
    "tag": "brain power"
  },
  {
    "tag": "brain tumour"
  },
  {
    "tag": "bread"
  },
  {
    "tag": "bread ends"
  },
  {
    "tag": "bread slice"
  },
  {
    "tag": "bread tab"
  },
  {
    "tag": "breakfast"
  },
  {
    "tag": "breakfast hacks"
  },
  {
    "tag": "breast cancer"
  },
  {
    "tag": "breast feeding"
  },
  {
    "tag": "breath"
  },
  {
    "tag": "bright color"
  },
  {
    "tag": "bright lights"
  },
  {
    "tag": "broken glass"
  },
  {
    "tag": "brown bear"
  },
  {
    "tag": "bruise"
  },
  {
    "tag": "bubbles"
  },
  {
    "tag": "bug bite"
  },
  {
    "tag": "bug repellant"
  },
  {
    "tag": "build confidence"
  },
  {
    "tag": "burn calories"
  },
  {
    "tag": "burn fat"
  },
  {
    "tag": "burning"
  },
  {
    "tag": "burning tongue"
  },
  {
    "tag": "burnt tongue"
  },
  {
    "tag": "butter"
  },
  {
    "tag": "buying earrphones"
  },
  {
    "tag": "buying gifts"
  },
  {
    "tag": "cab"
  },
  {
    "tag": "cab driver"
  },
  {
    "tag": "cable hacks"
  },
  {
    "tag": "cake slicing"
  },
  {
    "tag": "calculate"
  },
  {
    "tag": "calculate hangover"
  },
  {
    "tag": "calculator"
  },
  {
    "tag": "calendar"
  },
  {
    "tag": "caller Id"
  },
  {
    "tag": "calling"
  },
  {
    "tag": "calories"
  },
  {
    "tag": "camera"
  },
  {
    "tag": "cameras"
  },
  {
    "tag": "camping"
  },
  {
    "tag": "candies"
  },
  {
    "tag": "candle"
  },
  {
    "tag": "candles"
  },
  {
    "tag": "candy box"
  },
  {
    "tag": "car"
  },
  {
    "tag": "car hacks"
  },
  {
    "tag": "car headlights"
  },
  {
    "tag": "car shopping"
  },
  {
    "tag": "car tips"
  },
  {
    "tag": "car's dasboard"
  },
  {
    "tag": "cards"
  },
  {
    "tag": "cat cuddling"
  },
  {
    "tag": "catalyze superglue"
  },
  {
    "tag": "catch flies"
  },
  {
    "tag": "cauliflower"
  },
  {
    "tag": "celery"
  },
  {
    "tag": "cement walls"
  },
  {
    "tag": "chapstick"
  },
  {
    "tag": "character"
  },
  {
    "tag": "charger"
  },
  {
    "tag": "charity"
  },
  {
    "tag": "cheap airline tickets"
  },
  {
    "tag": "cheap coffee"
  },
  {
    "tag": "cheap deals"
  },
  {
    "tag": "cheating"
  },
  {
    "tag": "cheese"
  },
  {
    "tag": "chew gum"
  },
  {
    "tag": "chewing gum hacks"
  },
  {
    "tag": "chicken nuggets"
  },
  {
    "tag": "child"
  },
  {
    "tag": "childhood"
  },
  {
    "tag": "chilled beer"
  },
  {
    "tag": "chilled wine"
  },
  {
    "tag": "chocolate"
  },
  {
    "tag": "chocolate hacks"
  },
  {
    "tag": "chocolate tips"
  },
  {
    "tag": "choose"
  },
  {
    "tag": "choose wisely"
  },
  {
    "tag": "chopsticks"
  },
  {
    "tag": "christmas hacks"
  },
  {
    "tag": "chrome"
  },
  {
    "tag": "cigarette smoke"
  },
  {
    "tag": "circle"
  },
  {
    "tag": "classrooms"
  },
  {
    "tag": "clean shoes"
  },
  {
    "tag": "clean up space"
  },
  {
    "tag": "cleaning hacks"
  },
  {
    "tag": "cleaning tips"
  },
  {
    "tag": "clear ice"
  },
  {
    "tag": "clearance price"
  },
  {
    "tag": "closed tab"
  },
  {
    "tag": "clothes"
  },
  {
    "tag": "clothespin"
  },
  {
    "tag": "clothing"
  },
  {
    "tag": "clothing hacks"
  },
  {
    "tag": "clothing tips"
  },
  {
    "tag": "club hacks"
  },
  {
    "tag": "coconut oil"
  },
  {
    "tag": "coffee"
  },
  {
    "tag": "coffee hacks"
  },
  {
    "tag": "coffee tips"
  },
  {
    "tag": "coin"
  },
  {
    "tag": "coin flipping"
  },
  {
    "tag": "coin hacks"
  },
  {
    "tag": "coke"
  },
  {
    "tag": "cold drink"
  },
  {
    "tag": "cold nights"
  },
  {
    "tag": "cold shower"
  },
  {
    "tag": "cold showers"
  },
  {
    "tag": "college tips"
  },
  {
    "tag": "cologne"
  },
  {
    "tag": "comedians"
  },
  {
    "tag": "comfort zone"
  },
  {
    "tag": "command crying"
  },
  {
    "tag": "compatibility"
  },
  {
    "tag": "compatible"
  },
  {
    "tag": "compliments"
  },
  {
    "tag": "computer"
  },
  {
    "tag": "computer hacks"
  },
  {
    "tag": "concentrated"
  },
  {
    "tag": "concentration"
  },
  {
    "tag": "concert hacks"
  },
  {
    "tag": "concert tips"
  },
  {
    "tag": "condiment bottles"
  },
  {
    "tag": "condom"
  },
  {
    "tag": "confidence"
  },
  {
    "tag": "confident"
  },
  {
    "tag": "consumables"
  },
  {
    "tag": "content"
  },
  {
    "tag": "control pee"
  },
  {
    "tag": "cook"
  },
  {
    "tag": "cook bacon"
  },
  {
    "tag": "cookies"
  },
  {
    "tag": "cookig tips"
  },
  {
    "tag": "cooking"
  },
  {
    "tag": "cooking tips"
  },
  {
    "tag": "cool down"
  },
  {
    "tag": "cord"
  },
  {
    "tag": "cordial"
  },
  {
    "tag": "cords"
  },
  {
    "tag": "corn dogs"
  },
  {
    "tag": "cornstarch"
  },
  {
    "tag": "costco"
  },
  {
    "tag": "coupon"
  },
  {
    "tag": "court of law"
  },
  {
    "tag": "cramps"
  },
  {
    "tag": "crayon stains"
  },
  {
    "tag": "creative"
  },
  {
    "tag": "creativity"
  },
  {
    "tag": "crib mattress"
  },
  {
    "tag": "crime"
  },
  {
    "tag": "crisis"
  },
  {
    "tag": "crumbs"
  },
  {
    "tag": "cry less"
  },
  {
    "tag": "cuddling"
  },
  {
    "tag": "cuddling benefits"
  },
  {
    "tag": "cure"
  },
  {
    "tag": "cure acne"
  },
  {
    "tag": "cure allergy"
  },
  {
    "tag": "cure alzheimer"
  },
  {
    "tag": "cure arthritis"
  },
  {
    "tag": "cure asthma"
  },
  {
    "tag": "cure bad breath"
  },
  {
    "tag": "cure burns"
  },
  {
    "tag": "cure cancer"
  },
  {
    "tag": "cure cold"
  },
  {
    "tag": "cure depression"
  },
  {
    "tag": "cure diseases"
  },
  {
    "tag": "cure hangover"
  },
  {
    "tag": "cure headache"
  },
  {
    "tag": "cure headaches"
  },
  {
    "tag": "cure hiccups"
  },
  {
    "tag": "cure moles"
  },
  {
    "tag": "cure nausea"
  },
  {
    "tag": "cure pimples"
  },
  {
    "tag": "cure shaving cuts"
  },
  {
    "tag": "cure sore throat"
  },
  {
    "tag": "cure soreness"
  },
  {
    "tag": "cure splinters"
  },
  {
    "tag": "cure ulcer"
  },
  {
    "tag": "cure warts"
  },
  {
    "tag": "curfew hacks"
  },
  {
    "tag": "curious"
  },
  {
    "tag": "current affairs"
  },
  {
    "tag": "customer care calling"
  },
  {
    "tag": "customer support"
  },
  {
    "tag": "customize ringtone"
  },
  {
    "tag": "customized burger"
  },
  {
    "tag": "cutting"
  },
  {
    "tag": "cutting board"
  },
  {
    "tag": "daily life"
  },
  {
    "tag": "daily life tips"
  },
  {
    "tag": "daily solutions"
  },
  {
    "tag": "dairy products"
  },
  {
    "tag": "dandruff"
  },
  {
    "tag": "dark chocolate"
  },
  {
    "tag": "dark night"
  },
  {
    "tag": "date"
  },
  {
    "tag": "date tonight"
  },
  {
    "tag": "dead skin cells"
  },
  {
    "tag": "deadly"
  },
  {
    "tag": "deals"
  },
  {
    "tag": "debit card"
  },
  {
    "tag": "debit card tips"
  },
  {
    "tag": "decision"
  },
  {
    "tag": "decision making"
  },
  {
    "tag": "decisions"
  },
  {
    "tag": "decorating cakes"
  },
  {
    "tag": "defense"
  },
  {
    "tag": "defog"
  },
  {
    "tag": "dehydration"
  },
  {
    "tag": "delayed food"
  },
  {
    "tag": "dental floss"
  },
  {
    "tag": "deodorant"
  },
  {
    "tag": "deodorant hacks"
  },
  {
    "tag": "deodorant stains"
  },
  {
    "tag": "deodorize shoe"
  },
  {
    "tag": "depressed"
  },
  {
    "tag": "depression"
  },
  {
    "tag": "dessert ideas"
  },
  {
    "tag": "detox drink"
  },
  {
    "tag": "diet coke"
  },
  {
    "tag": "dieting"
  },
  {
    "tag": "differentiate"
  },
  {
    "tag": "digestion"
  },
  {
    "tag": "dinner"
  },
  {
    "tag": "direction"
  },
  {
    "tag": "disc hacks"
  },
  {
    "tag": "discount"
  },
  {
    "tag": "discounts"
  },
  {
    "tag": "dishes"
  },
  {
    "tag": "disney"
  },
  {
    "tag": "disneyland"
  },
  {
    "tag": "dispose"
  },
  {
    "tag": "divorce"
  },
  {
    "tag": "doctor"
  },
  {
    "tag": "documentaries"
  },
  {
    "tag": "dog"
  },
  {
    "tag": "dog photograph"
  },
  {
    "tag": "dogs"
  },
  {
    "tag": "donate"
  },
  {
    "tag": "doritos"
  },
  {
    "tag": "download"
  },
  {
    "tag": "draining"
  },
  {
    "tag": "draw diagrams"
  },
  {
    "tag": "dreaming"
  },
  {
    "tag": "dreams"
  },
  {
    "tag": "dreamy"
  },
  {
    "tag": "dreamy night"
  },
  {
    "tag": "dried clothes"
  },
  {
    "tag": "drink water"
  },
  {
    "tag": "drinking"
  },
  {
    "tag": "drinking water"
  },
  {
    "tag": "drinks"
  },
  {
    "tag": "driver"
  },
  {
    "tag": "driving"
  },
  {
    "tag": "driving hacks"
  },
  {
    "tag": "driving late"
  },
  {
    "tag": "driving tips"
  },
  {
    "tag": "dropped phone"
  },
  {
    "tag": "drunk"
  },
  {
    "tag": "dry mouth"
  },
  {
    "tag": "dryer"
  },
  {
    "tag": "dryer sheets"
  },
  {
    "tag": "ducks"
  },
  {
    "tag": "duct tape"
  },
  {
    "tag": "duracell batteries"
  },
  {
    "tag": "earing"
  },
  {
    "tag": "early riser"
  },
  {
    "tag": "earn"
  },
  {
    "tag": "earphones"
  },
  {
    "tag": "earthquake"
  },
  {
    "tag": "easy"
  },
  {
    "tag": "easy cooking tips"
  },
  {
    "tag": "easy life"
  },
  {
    "tag": "eat extra"
  },
  {
    "tag": "eat less"
  },
  {
    "tag": "economical"
  },
  {
    "tag": "edible things"
  },
  {
    "tag": "education"
  },
  {
    "tag": "egg hacks"
  },
  {
    "tag": "egg tips"
  },
  {
    "tag": "eggs"
  },
  {
    "tag": "elmer's lue"
  },
  {
    "tag": "email"
  },
  {
    "tag": "emails"
  },
  {
    "tag": "emergency"
  },
  {
    "tag": "emergency crisis"
  },
  {
    "tag": "emergency hacks"
  },
  {
    "tag": "emotional pain"
  },
  {
    "tag": "empty stomach"
  },
  {
    "tag": "empty tissue box"
  },
  {
    "tag": "engines over heating"
  },
  {
    "tag": "english muffin"
  },
  {
    "tag": "enhance performance"
  },
  {
    "tag": "enjoy"
  },
  {
    "tag": "enjoying food"
  },
  {
    "tag": "envelope"
  },
  {
    "tag": "eraser"
  },
  {
    "tag": "escape"
  },
  {
    "tag": "essay writing"
  },
  {
    "tag": "etiquette"
  },
  {
    "tag": "etiquettes"
  },
  {
    "tag": "ettiquettes"
  },
  {
    "tag": "exam day"
  },
  {
    "tag": "exam hacks"
  },
  {
    "tag": "excercises"
  },
  {
    "tag": "excuses"
  },
  {
    "tag": "exercise"
  },
  {
    "tag": "exercising"
  },
  {
    "tag": "exhale"
  },
  {
    "tag": "experiments"
  },
  {
    "tag": "expired foods"
  },
  {
    "tag": "extra storage"
  },
  {
    "tag": "extra use"
  },
  {
    "tag": "eye care"
  },
  {
    "tag": "eye contact"
  },
  {
    "tag": "eye drops"
  },
  {
    "tag": "eyeliner tips"
  },
  {
    "tag": "eyes"
  },
  {
    "tag": "facebook"
  },
  {
    "tag": "facebook hacks"
  },
  {
    "tag": "fact"
  },
  {
    "tag": "facts"
  },
  {
    "tag": "fake PIN"
  },
  {
    "tag": "fall asleep"
  },
  {
    "tag": "family gathering"
  },
  {
    "tag": "family vacations"
  },
  {
    "tag": "farts"
  },
  {
    "tag": "fast thinkers"
  },
  {
    "tag": "faster charging"
  },
  {
    "tag": "feelings"
  },
  {
    "tag": "fight depression"
  },
  {
    "tag": "find"
  },
  {
    "tag": "find car"
  },
  {
    "tag": "find errors"
  },
  {
    "tag": "find lyrics"
  },
  {
    "tag": "find things"
  },
  {
    "tag": "fingernails"
  },
  {
    "tag": "fire"
  },
  {
    "tag": "fires"
  },
  {
    "tag": "firework"
  },
  {
    "tag": "fit"
  },
  {
    "tag": "fit shoes"
  },
  {
    "tag": "fitness"
  },
  {
    "tag": "fitness first"
  },
  {
    "tag": "fix cling"
  },
  {
    "tag": "flashlight"
  },
  {
    "tag": "flattened pillow"
  },
  {
    "tag": "flavoured"
  },
  {
    "tag": "flight"
  },
  {
    "tag": "flip"
  },
  {
    "tag": "flip bottle"
  },
  {
    "tag": "flip flops"
  },
  {
    "tag": "flora"
  },
  {
    "tag": "flour"
  },
  {
    "tag": "flowers"
  },
  {
    "tag": "focus"
  },
  {
    "tag": "follow rules"
  },
  {
    "tag": "font size"
  },
  {
    "tag": "food"
  },
  {
    "tag": "food color"
  },
  {
    "tag": "food habits"
  },
  {
    "tag": "food hacks"
  },
  {
    "tag": "food tips"
  },
  {
    "tag": "food tricks"
  },
  {
    "tag": "foods"
  },
  {
    "tag": "forgot password"
  },
  {
    "tag": "fork"
  },
  {
    "tag": "format"
  },
  {
    "tag": "fragrance"
  },
  {
    "tag": "free alcohol"
  },
  {
    "tag": "free calls"
  },
  {
    "tag": "free channels"
  },
  {
    "tag": "free coffee"
  },
  {
    "tag": "free cup"
  },
  {
    "tag": "free drink"
  },
  {
    "tag": "free drinks"
  },
  {
    "tag": "free food"
  },
  {
    "tag": "free internet"
  },
  {
    "tag": "free money"
  },
  {
    "tag": "free pickles"
  },
  {
    "tag": "free popcorn"
  },
  {
    "tag": "free ride"
  },
  {
    "tag": "free sign up"
  },
  {
    "tag": "free stickers"
  },
  {
    "tag": "free trial"
  },
  {
    "tag": "free videos"
  },
  {
    "tag": "freeze"
  },
  {
    "tag": "freezer"
  },
  {
    "tag": "french button"
  },
  {
    "tag": "fresh flowers"
  },
  {
    "tag": "fresh stock"
  },
  {
    "tag": "friendship"
  },
  {
    "tag": "friendship tips"
  },
  {
    "tag": "friendships"
  },
  {
    "tag": "frozen phone"
  },
  {
    "tag": "frozen wine"
  },
  {
    "tag": "fruit drinks"
  },
  {
    "tag": "fruit hacks"
  },
  {
    "tag": "fruit remedies"
  },
  {
    "tag": "fruit tips"
  },
  {
    "tag": "fun"
  },
  {
    "tag": "fun activity"
  },
  {
    "tag": "fun around"
  },
  {
    "tag": "fun fact"
  },
  {
    "tag": "fun facts"
  },
  {
    "tag": "fun night"
  },
  {
    "tag": "furniture hacks"
  },
  {
    "tag": "future"
  },
  {
    "tag": "future self"
  },
  {
    "tag": "game"
  },
  {
    "tag": "games"
  },
  {
    "tag": "garbage"
  },
  {
    "tag": "garlic"
  },
  {
    "tag": "gas"
  },
  {
    "tag": "gas hacks"
  },
  {
    "tag": "gas station"
  },
  {
    "tag": "gas stations"
  },
  {
    "tag": "gasses expand"
  },
  {
    "tag": "gatorade"
  },
  {
    "tag": "generosity"
  },
  {
    "tag": "generous"
  },
  {
    "tag": "geography PRO"
  },
  {
    "tag": "get paid"
  },
  {
    "tag": "get stains off"
  },
  {
    "tag": "get things done"
  },
  {
    "tag": "getting late"
  },
  {
    "tag": "getting married"
  },
  {
    "tag": "getting wed"
  },
  {
    "tag": "gifts"
  },
  {
    "tag": "girls"
  },
  {
    "tag": "giveaway"
  },
  {
    "tag": "gloomy days"
  },
  {
    "tag": "glow paint"
  },
  {
    "tag": "glow stick"
  },
  {
    "tag": "glowy"
  },
  {
    "tag": "gmail"
  },
  {
    "tag": "gmes"
  },
  {
    "tag": "go green"
  },
  {
    "tag": "good battery health"
  },
  {
    "tag": "good habits"
  },
  {
    "tag": "goodjob"
  },
  {
    "tag": "google hacks"
  },
  {
    "tag": "google search"
  },
  {
    "tag": "gorgeous skin"
  },
  {
    "tag": "graduate"
  },
  {
    "tag": "grateful"
  },
  {
    "tag": "gratitude"
  },
  {
    "tag": "grease remover"
  },
  {
    "tag": "grease stains"
  },
  {
    "tag": "great skin"
  },
  {
    "tag": "great women"
  },
  {
    "tag": "green"
  },
  {
    "tag": "greeting"
  },
  {
    "tag": "grocery shopping"
  },
  {
    "tag": "group study"
  },
  {
    "tag": "gulp burger"
  },
  {
    "tag": "gym"
  },
  {
    "tag": "gym membership"
  },
  {
    "tag": "hair conditioner"
  },
  {
    "tag": "hair growth"
  },
  {
    "tag": "hair hacks"
  },
  {
    "tag": "haircut tips"
  },
  {
    "tag": "hairspray hacks"
  },
  {
    "tag": "halloween"
  },
  {
    "tag": "hang posters"
  },
  {
    "tag": "hangman words"
  },
  {
    "tag": "hangover"
  },
  {
    "tag": "happiness"
  },
  {
    "tag": "happy being"
  },
  {
    "tag": "happy birthday jingle"
  },
  {
    "tag": "hard cookies"
  },
  {
    "tag": "hard drive"
  },
  {
    "tag": "harlem shake"
  },
  {
    "tag": "head lights"
  },
  {
    "tag": "head-tails"
  },
  {
    "tag": "headache"
  },
  {
    "tag": "headaches"
  },
  {
    "tag": "headphones"
  },
  {
    "tag": "headphones tips"
  },
  {
    "tag": "heal"
  },
  {
    "tag": "heal bites"
  },
  {
    "tag": "heal bruise"
  },
  {
    "tag": "heal faster"
  },
  {
    "tag": "heal wounds"
  },
  {
    "tag": "health"
  },
  {
    "tag": "health benefits"
  },
  {
    "tag": "health hacks"
  },
  {
    "tag": "health tips"
  },
  {
    "tag": "health tricks"
  },
  {
    "tag": "healthy"
  },
  {
    "tag": "healthy mouth"
  },
  {
    "tag": "healthy snacking"
  },
  {
    "tag": "healthy tips"
  },
  {
    "tag": "heat"
  },
  {
    "tag": "heat leftovers"
  },
  {
    "tag": "heating pads"
  },
  {
    "tag": "heealthy hair"
  },
  {
    "tag": "height"
  },
  {
    "tag": "hiccup cure"
  },
  {
    "tag": "hickey"
  },
  {
    "tag": "hidden gifts"
  },
  {
    "tag": "high fare"
  },
  {
    "tag": "high school"
  },
  {
    "tag": "high volume music"
  },
  {
    "tag": "highway hacks"
  },
  {
    "tag": "hike prices"
  },
  {
    "tag": "hints"
  },
  {
    "tag": "home cooked food"
  },
  {
    "tag": "home made solutions"
  },
  {
    "tag": "honest"
  },
  {
    "tag": "honey"
  },
  {
    "tag": "honey tips"
  },
  {
    "tag": "horror movies"
  },
  {
    "tag": "hot chocolate"
  },
  {
    "tag": "hot weather"
  },
  {
    "tag": "hotel stay"
  },
  {
    "tag": "hotel tips"
  },
  {
    "tag": "hotels"
  },
  {
    "tag": "household hacks"
  },
  {
    "tag": "household tips"
  },
  {
    "tag": "household tricks"
  },
  {
    "tag": "human brain"
  },
  {
    "tag": "humble"
  },
  {
    "tag": "humour"
  },
  {
    "tag": "hungry"
  },
  {
    "tag": "hydrated"
  },
  {
    "tag": "hydration"
  },
  {
    "tag": "hygiene"
  },
  {
    "tag": "iOS"
  },
  {
    "tag": "iOS device"
  },
  {
    "tag": "iOS hacks"
  },
  {
    "tag": "iOS tips"
  },
  {
    "tag": "iOS tricks"
  },
  {
    "tag": "iPad"
  },
  {
    "tag": "iPhone"
  },
  {
    "tag": "iPhone hacks"
  },
  {
    "tag": "iPhone tips"
  },
  {
    "tag": "iTunes"
  },
  {
    "tag": "ice"
  },
  {
    "tag": "ice cream"
  },
  {
    "tag": "ice cream box"
  },
  {
    "tag": "ice cream hacks"
  },
  {
    "tag": "ice cube tray"
  },
  {
    "tag": "ice cubes"
  },
  {
    "tag": "ice cubes tips"
  },
  {
    "tag": "ice hacks"
  },
  {
    "tag": "ice pack"
  },
  {
    "tag": "ice water"
  },
  {
    "tag": "ice- cream tricks"
  },
  {
    "tag": "icing cakes"
  },
  {
    "tag": "ideas"
  },
  {
    "tag": "image hacks"
  },
  {
    "tag": "image search"
  },
  {
    "tag": "immunity"
  },
  {
    "tag": "impress"
  },
  {
    "tag": "impression"
  },
  {
    "tag": "improve concentration"
  },
  {
    "tag": "improve digestion"
  },
  {
    "tag": "improve grades"
  },
  {
    "tag": "improve memory"
  },
  {
    "tag": "improve metabolism"
  },
  {
    "tag": "improves positivity"
  },
  {
    "tag": "improves productivity"
  },
  {
    "tag": "incognito tab"
  },
  {
    "tag": "increase melanin"
  },
  {
    "tag": "ink catridges"
  },
  {
    "tag": "ink color"
  },
  {
    "tag": "ink stains"
  },
  {
    "tag": "insects"
  },
  {
    "tag": "insects away"
  },
  {
    "tag": "insomniac"
  },
  {
    "tag": "inspirational"
  },
  {
    "tag": "inspirational."
  },
  {
    "tag": "instagram hacks"
  },
  {
    "tag": "instant solutions"
  },
  {
    "tag": "instrumentals"
  },
  {
    "tag": "insurance"
  },
  {
    "tag": "intelligence"
  },
  {
    "tag": "internet"
  },
  {
    "tag": "interview hacks"
  },
  {
    "tag": "interview insights"
  },
  {
    "tag": "interview tips"
  },
  {
    "tag": "invest"
  },
  {
    "tag": "irritated skin"
  },
  {
    "tag": "itch"
  },
  {
    "tag": "itching"
  },
  {
    "tag": "janitors"
  },
  {
    "tag": "japanese restaurants"
  },
  {
    "tag": "japenese food"
  },
  {
    "tag": "japenese restaurant"
  },
  {
    "tag": "japenese restaurants"
  },
  {
    "tag": "jazz up"
  },
  {
    "tag": "jealous"
  },
  {
    "tag": "jean"
  },
  {
    "tag": "jean hacks"
  },
  {
    "tag": "jellyfish stings"
  },
  {
    "tag": "jewelry"
  },
  {
    "tag": "job"
  },
  {
    "tag": "job search"
  },
  {
    "tag": "jog"
  },
  {
    "tag": "judge people"
  },
  {
    "tag": "judge someone"
  },
  {
    "tag": "junk food hacks"
  },
  {
    "tag": "keep record"
  },
  {
    "tag": "ketchup bottle"
  },
  {
    "tag": "ketchup hacks"
  },
  {
    "tag": "key to success"
  },
  {
    "tag": "keyboard cleaning"
  },
  {
    "tag": "keys"
  },
  {
    "tag": "kidnapping"
  },
  {
    "tag": "kidnapping survival"
  },
  {
    "tag": "kidney stones"
  },
  {
    "tag": "kids"
  },
  {
    "tag": "kill ants"
  },
  {
    "tag": "kill bacteria"
  },
  {
    "tag": "kill flies"
  },
  {
    "tag": "kill hangover"
  },
  {
    "tag": "kill mosquitoes"
  },
  {
    "tag": "kisses"
  },
  {
    "tag": "kitchen hacks"
  },
  {
    "tag": "kitchen tips"
  },
  {
    "tag": "knot"
  },
  {
    "tag": "language"
  },
  {
    "tag": "laptop hacks"
  },
  {
    "tag": "large crowd"
  },
  {
    "tag": "laugh"
  },
  {
    "tag": "laugh more"
  },
  {
    "tag": "laughing"
  },
  {
    "tag": "laughing gags"
  },
  {
    "tag": "laughter"
  },
  {
    "tag": "learn languages"
  },
  {
    "tag": "learn things"
  },
  {
    "tag": "learned"
  },
  {
    "tag": "learning"
  },
  {
    "tag": "learning activity"
  },
  {
    "tag": "leather shoes"
  },
  {
    "tag": "left over coffee"
  },
  {
    "tag": "legs"
  },
  {
    "tag": "lemon"
  },
  {
    "tag": "length"
  },
  {
    "tag": "less crying"
  },
  {
    "tag": "less dent"
  },
  {
    "tag": "less sleep"
  },
  {
    "tag": "less spillage"
  },
  {
    "tag": "less sugar"
  },
  {
    "tag": "let go"
  },
  {
    "tag": "letters"
  },
  {
    "tag": "lick"
  },
  {
    "tag": "life"
  },
  {
    "tag": "life expectancy"
  },
  {
    "tag": "life hacks"
  },
  {
    "tag": "life savers"
  },
  {
    "tag": "life tip"
  },
  {
    "tag": "life tips"
  },
  {
    "tag": "lift tricks"
  },
  {
    "tag": "lifting"
  },
  {
    "tag": "light"
  },
  {
    "tag": "light fire"
  },
  {
    "tag": "light up"
  },
  {
    "tag": "liquor"
  },
  {
    "tag": "live long"
  },
  {
    "tag": "live more"
  },
  {
    "tag": "loaning a friend"
  },
  {
    "tag": "loner"
  },
  {
    "tag": "look beautiful"
  },
  {
    "tag": "lose weight"
  },
  {
    "tag": "lost"
  },
  {
    "tag": "lost phone"
  },
  {
    "tag": "lost things"
  },
  {
    "tag": "loud music"
  },
  {
    "tag": "love hacks"
  },
  {
    "tag": "love interest"
  },
  {
    "tag": "love letters"
  },
  {
    "tag": "love life"
  },
  {
    "tag": "love texts"
  },
  {
    "tag": "love yourself"
  },
  {
    "tag": "love- interest"
  },
  {
    "tag": "love- life"
  },
  {
    "tag": "love-life"
  },
  {
    "tag": "loved ones"
  },
  {
    "tag": "low battery"
  },
  {
    "tag": "low blood sugar"
  },
  {
    "tag": "low price"
  },
  {
    "tag": "low-fat yogurt"
  },
  {
    "tag": "luggage"
  },
  {
    "tag": "mable hacks"
  },
  {
    "tag": "magazine"
  },
  {
    "tag": "mailing services"
  },
  {
    "tag": "make lists"
  },
  {
    "tag": "man-woman"
  },
  {
    "tag": "manage task"
  },
  {
    "tag": "manage time"
  },
  {
    "tag": "marriage"
  },
  {
    "tag": "married"
  },
  {
    "tag": "married life"
  },
  {
    "tag": "marshmallow"
  },
  {
    "tag": "marshmallow hacks"
  },
  {
    "tag": "marshmallows"
  },
  {
    "tag": "massage"
  },
  {
    "tag": "massaged"
  },
  {
    "tag": "math problems"
  },
  {
    "tag": "maths"
  },
  {
    "tag": "meals"
  },
  {
    "tag": "measure weight"
  },
  {
    "tag": "measurement"
  },
  {
    "tag": "meat"
  },
  {
    "tag": "meat cooking"
  },
  {
    "tag": "medication"
  },
  {
    "tag": "meditation"
  },
  {
    "tag": "meeting"
  },
  {
    "tag": "membership"
  },
  {
    "tag": "memorize"
  },
  {
    "tag": "memorizing"
  },
  {
    "tag": "memory"
  },
  {
    "tag": "mickey mouse"
  },
  {
    "tag": "microsoft word"
  },
  {
    "tag": "microwave"
  },
  {
    "tag": "microwave cleaning"
  },
  {
    "tag": "milk"
  },
  {
    "tag": "mind exercises"
  },
  {
    "tag": "mint gum"
  },
  {
    "tag": "mirowave cleaning"
  },
  {
    "tag": "mitigate pain"
  },
  {
    "tag": "mitigate zit"
  },
  {
    "tag": "mobile phone"
  },
  {
    "tag": "mobile phone hacks"
  },
  {
    "tag": "mobile phone tips"
  },
  {
    "tag": "mobile phones"
  },
  {
    "tag": "mom-dad"
  },
  {
    "tag": "monday motivation"
  },
  {
    "tag": "money"
  },
  {
    "tag": "money hacks"
  },
  {
    "tag": "money savers"
  },
  {
    "tag": "money saving"
  },
  {
    "tag": "money saving tips"
  },
  {
    "tag": "more storage"
  },
  {
    "tag": "morning"
  },
  {
    "tag": "morning sun"
  },
  {
    "tag": "morning walk"
  },
  {
    "tag": "mosquito bite"
  },
  {
    "tag": "mosquito bites"
  },
  {
    "tag": "motivated"
  },
  {
    "tag": "motivation"
  },
  {
    "tag": "motivational"
  },
  {
    "tag": "motorbikes"
  },
  {
    "tag": "move on"
  },
  {
    "tag": "movie date"
  },
  {
    "tag": "movie tips"
  },
  {
    "tag": "movies"
  },
  {
    "tag": "movvies"
  },
  {
    "tag": "multi task"
  },
  {
    "tag": "multi-lingual"
  },
  {
    "tag": "muscle soreness"
  },
  {
    "tag": "music"
  },
  {
    "tag": "musical instruments"
  },
  {
    "tag": "nail paint"
  },
  {
    "tag": "nail paint tips"
  },
  {
    "tag": "nails"
  },
  {
    "tag": "nails beauty"
  },
  {
    "tag": "nap"
  },
  {
    "tag": "natural hacks"
  },
  {
    "tag": "natural relief"
  },
  {
    "tag": "natural remedies"
  },
  {
    "tag": "natural remedy"
  },
  {
    "tag": "natural sky"
  },
  {
    "tag": "natural tips"
  },
  {
    "tag": "natural tricks"
  },
  {
    "tag": "naural remedies"
  },
  {
    "tag": "navigation"
  },
  {
    "tag": "needle tips"
  },
  {
    "tag": "neighbourhood"
  },
  {
    "tag": "netflix hacks"
  },
  {
    "tag": "new friends"
  },
  {
    "tag": "new shows"
  },
  {
    "tag": "new trial"
  },
  {
    "tag": "newspaper hacks"
  },
  {
    "tag": "night alone"
  },
  {
    "tag": "night hacks"
  },
  {
    "tag": "night out"
  },
  {
    "tag": "no blemishes"
  },
  {
    "tag": "no complaints"
  },
  {
    "tag": "no diseases"
  },
  {
    "tag": "no knife"
  },
  {
    "tag": "no procrastination"
  },
  {
    "tag": "non fiction"
  },
  {
    "tag": "note making"
  },
  {
    "tag": "notes"
  },
  {
    "tag": "november"
  },
  {
    "tag": "numbers"
  },
  {
    "tag": "nutella"
  },
  {
    "tag": "nutella cookies"
  },
  {
    "tag": "nutrition"
  },
  {
    "tag": "odd-even"
  },
  {
    "tag": "odor"
  },
  {
    "tag": "odorless"
  },
  {
    "tag": "oesophagal cancer"
  },
  {
    "tag": "office hacks"
  },
  {
    "tag": "office things"
  },
  {
    "tag": "old CD spindle"
  },
  {
    "tag": "old shoes"
  },
  {
    "tag": "olive oil"
  },
  {
    "tag": "onion"
  },
  {
    "tag": "onion chopping"
  },
  {
    "tag": "onion hacks"
  },
  {
    "tag": "online"
  },
  {
    "tag": "online accounts"
  },
  {
    "tag": "online shopping"
  },
  {
    "tag": "orange slicing"
  },
  {
    "tag": "ordering"
  },
  {
    "tag": "organised"
  },
  {
    "tag": "organising"
  },
  {
    "tag": "orgasms"
  },
  {
    "tag": "out of service"
  },
  {
    "tag": "out of time"
  },
  {
    "tag": "outdoor event"
  },
  {
    "tag": "oven hacks"
  },
  {
    "tag": "over speeding"
  },
  {
    "tag": "pain tolerance"
  },
  {
    "tag": "painful gas"
  },
  {
    "tag": "painkillers"
  },
  {
    "tag": "paint"
  },
  {
    "tag": "painting"
  },
  {
    "tag": "pancake ideas"
  },
  {
    "tag": "pancake mix"
  },
  {
    "tag": "pandora"
  },
  {
    "tag": "pandora skips"
  },
  {
    "tag": "paper cut"
  },
  {
    "tag": "paperclip"
  },
  {
    "tag": "parenting"
  },
  {
    "tag": "parents"
  },
  {
    "tag": "pareting"
  },
  {
    "tag": "parking"
  },
  {
    "tag": "parking ideas"
  },
  {
    "tag": "parsley"
  },
  {
    "tag": "parties"
  },
  {
    "tag": "party"
  },
  {
    "tag": "party hacks"
  },
  {
    "tag": "party tips"
  },
  {
    "tag": "party vibes"
  },
  {
    "tag": "password"
  },
  {
    "tag": "past experiences"
  },
  {
    "tag": "payless"
  },
  {
    "tag": "peace of mind"
  },
  {
    "tag": "peanut shells"
  },
  {
    "tag": "pecautions"
  },
  {
    "tag": "pedals"
  },
  {
    "tag": "pee-shy"
  },
  {
    "tag": "peel eggs"
  },
  {
    "tag": "peel garlic"
  },
  {
    "tag": "pen"
  },
  {
    "tag": "pen hacks"
  },
  {
    "tag": "pen protection"
  },
  {
    "tag": "pen thieves"
  },
  {
    "tag": "peppermint oil"
  },
  {
    "tag": "perfect click"
  },
  {
    "tag": "perfumes"
  },
  {
    "tag": "permanent marker"
  },
  {
    "tag": "permissible"
  },
  {
    "tag": "pets"
  },
  {
    "tag": "phone"
  },
  {
    "tag": "phone charger"
  },
  {
    "tag": "phone charges"
  },
  {
    "tag": "phone tips"
  },
  {
    "tag": "photograph"
  },
  {
    "tag": "photograph skills"
  },
  {
    "tag": "photography"
  },
  {
    "tag": "photography hacks"
  },
  {
    "tag": "photography tips"
  },
  {
    "tag": "pi"
  },
  {
    "tag": "pillow cases"
  },
  {
    "tag": "pills"
  },
  {
    "tag": "pineapple juice"
  },
  {
    "tag": "pinterest"
  },
  {
    "tag": "pissed off"
  },
  {
    "tag": "pizza"
  },
  {
    "tag": "pizza cutter"
  },
  {
    "tag": "pizza hacks"
  },
  {
    "tag": "pizza heating"
  },
  {
    "tag": "pizza tips"
  },
  {
    "tag": "planet earth"
  },
  {
    "tag": "plant eating"
  },
  {
    "tag": "player size"
  },
  {
    "tag": "playing movie"
  },
  {
    "tag": "points to remember"
  },
  {
    "tag": "poisonous food"
  },
  {
    "tag": "police"
  },
  {
    "tag": "pool noodles"
  },
  {
    "tag": "pop corn"
  },
  {
    "tag": "popcorn hacks"
  },
  {
    "tag": "pops"
  },
  {
    "tag": "popsicle hacks"
  },
  {
    "tag": "positive"
  },
  {
    "tag": "positive vibes"
  },
  {
    "tag": "positivity"
  },
  {
    "tag": "postal services"
  },
  {
    "tag": "potatoes hacks"
  },
  {
    "tag": "power"
  },
  {
    "tag": "power cords"
  },
  {
    "tag": "power cuts"
  },
  {
    "tag": "powerpoint tips"
  },
  {
    "tag": "pre-heat"
  },
  {
    "tag": "precautions"
  },
  {
    "tag": "pregnancy"
  },
  {
    "tag": "pregnant man"
  },
  {
    "tag": "presentation"
  },
  {
    "tag": "presentation tips"
  },
  {
    "tag": "preserve"
  },
  {
    "tag": "prevent"
  },
  {
    "tag": "prevent acne"
  },
  {
    "tag": "prevent bacteria"
  },
  {
    "tag": "prevent blistering"
  },
  {
    "tag": "prevent chaffing"
  },
  {
    "tag": "prevent dandruff"
  },
  {
    "tag": "prevent spams"
  },
  {
    "tag": "prevent vomiting"
  },
  {
    "tag": "price fall"
  },
  {
    "tag": "printer"
  },
  {
    "tag": "private number"
  },
  {
    "tag": "procrastination"
  },
  {
    "tag": "procrastinator"
  },
  {
    "tag": "product"
  },
  {
    "tag": "productivity"
  },
  {
    "tag": "professional cuddler"
  },
  {
    "tag": "professionalism"
  },
  {
    "tag": "project presentation"
  },
  {
    "tag": "proofread"
  },
  {
    "tag": "proven facts"
  },
  {
    "tag": "psychology"
  },
  {
    "tag": "psychology tips"
  },
  {
    "tag": "pump hacks"
  },
  {
    "tag": "pupils"
  },
  {
    "tag": "puppies"
  },
  {
    "tag": "puzzle"
  },
  {
    "tag": "pychology"
  },
  {
    "tag": "quick note"
  },
  {
    "tag": "quiksand"
  },
  {
    "tag": "quit nicotine"
  },
  {
    "tag": "quit smoking"
  },
  {
    "tag": "radiations"
  },
  {
    "tag": "radio"
  },
  {
    "tag": "radioactive poisoning"
  },
  {
    "tag": "rain"
  },
  {
    "tag": "rain check policy"
  },
  {
    "tag": "rainbow fan"
  },
  {
    "tag": "raise hands"
  },
  {
    "tag": "raising kids"
  },
  {
    "tag": "re heat"
  },
  {
    "tag": "re-record"
  },
  {
    "tag": "reading"
  },
  {
    "tag": "reading fonts"
  },
  {
    "tag": "reading hacks"
  },
  {
    "tag": "reasoning"
  },
  {
    "tag": "receipt"
  },
  {
    "tag": "recipe"
  },
  {
    "tag": "recipes"
  },
  {
    "tag": "recording"
  },
  {
    "tag": "red lights"
  },
  {
    "tag": "reduce breakage"
  },
  {
    "tag": "reduce cholesterol"
  },
  {
    "tag": "reduce heart rate"
  },
  {
    "tag": "reduce physical pain"
  },
  {
    "tag": "refill"
  },
  {
    "tag": "refrigerator"
  },
  {
    "tag": "relationship"
  },
  {
    "tag": "relationship tricks"
  },
  {
    "tag": "relationships"
  },
  {
    "tag": "relax"
  },
  {
    "tag": "relax muscles"
  },
  {
    "tag": "relaxed"
  },
  {
    "tag": "relaxing"
  },
  {
    "tag": "relieve"
  },
  {
    "tag": "relieve burning"
  },
  {
    "tag": "relieve depression"
  },
  {
    "tag": "relieve gas"
  },
  {
    "tag": "relieve nausea"
  },
  {
    "tag": "relieve pain"
  },
  {
    "tag": "relieve stress"
  },
  {
    "tag": "relieve toothaches"
  },
  {
    "tag": "remedies"
  },
  {
    "tag": "remedy"
  },
  {
    "tag": "remember"
  },
  {
    "tag": "remove parasites"
  },
  {
    "tag": "remove personal data"
  },
  {
    "tag": "remove stain"
  },
  {
    "tag": "remove stains"
  },
  {
    "tag": "remove stink"
  },
  {
    "tag": "remove zit"
  },
  {
    "tag": "rename files"
  },
  {
    "tag": "repair teeth"
  },
  {
    "tag": "repeat song"
  },
  {
    "tag": "replace"
  },
  {
    "tag": "resce"
  },
  {
    "tag": "respect grandparents"
  },
  {
    "tag": "restaurant tips"
  },
  {
    "tag": "restaurants"
  },
  {
    "tag": "restricted videos"
  },
  {
    "tag": "resume"
  },
  {
    "tag": "revival"
  },
  {
    "tag": "rid of flies"
  },
  {
    "tag": "ringtone hacks"
  },
  {
    "tag": "rise above"
  },
  {
    "tag": "risk minimizer"
  },
  {
    "tag": "road trip"
  },
  {
    "tag": "romantic"
  },
  {
    "tag": "rubber bands"
  },
  {
    "tag": "rubbing alcohol"
  },
  {
    "tag": "running"
  },
  {
    "tag": "rust deposited"
  },
  {
    "tag": "safari"
  },
  {
    "tag": "safe parking"
  },
  {
    "tag": "safety"
  },
  {
    "tag": "safety tips"
  },
  {
    "tag": "sales"
  },
  {
    "tag": "salmon hacks"
  },
  {
    "tag": "salon tips"
  },
  {
    "tag": "salt"
  },
  {
    "tag": "salt hacks"
  },
  {
    "tag": "salt water"
  },
  {
    "tag": "sandwich"
  },
  {
    "tag": "sandwichs"
  },
  {
    "tag": "save change"
  },
  {
    "tag": "save files"
  },
  {
    "tag": "save image"
  },
  {
    "tag": "save lives"
  },
  {
    "tag": "save money"
  },
  {
    "tag": "save more"
  },
  {
    "tag": "save pens"
  },
  {
    "tag": "save water"
  },
  {
    "tag": "save wrapping paper"
  },
  {
    "tag": "save yourself"
  },
  {
    "tag": "saving"
  },
  {
    "tag": "saving money"
  },
  {
    "tag": "saving tips"
  },
  {
    "tag": "scarry face"
  },
  {
    "tag": "scattered"
  },
  {
    "tag": "scholar"
  },
  {
    "tag": "school hacks"
  },
  {
    "tag": "schools"
  },
  {
    "tag": "scientific"
  },
  {
    "tag": "scorching sun"
  },
  {
    "tag": "score good"
  },
  {
    "tag": "score well"
  },
  {
    "tag": "scrape ice"
  },
  {
    "tag": "scratch"
  },
  {
    "tag": "scratched screen"
  },
  {
    "tag": "screechy wooden floors"
  },
  {
    "tag": "screen"
  },
  {
    "tag": "secretaries"
  },
  {
    "tag": "security hacks"
  },
  {
    "tag": "self control"
  },
  {
    "tag": "self-love"
  },
  {
    "tag": "service"
  },
  {
    "tag": "service stations"
  },
  {
    "tag": "sex"
  },
  {
    "tag": "share"
  },
  {
    "tag": "sharp knife"
  },
  {
    "tag": "shaving cut"
  },
  {
    "tag": "shell gas stations"
  },
  {
    "tag": "shiny shoes"
  },
  {
    "tag": "shiny windows"
  },
  {
    "tag": "shoe shopping"
  },
  {
    "tag": "shoes"
  },
  {
    "tag": "shoes hacks"
  },
  {
    "tag": "shopping"
  },
  {
    "tag": "shopping experiences"
  },
  {
    "tag": "shopping hacks"
  },
  {
    "tag": "shopping tips"
  },
  {
    "tag": "shopping tricks"
  },
  {
    "tag": "shower"
  },
  {
    "tag": "singing"
  },
  {
    "tag": "size"
  },
  {
    "tag": "skin care"
  },
  {
    "tag": "skips"
  },
  {
    "tag": "skype"
  },
  {
    "tag": "sleep"
  },
  {
    "tag": "sleep deprived"
  },
  {
    "tag": "sleep faster"
  },
  {
    "tag": "sleep well"
  },
  {
    "tag": "sleeping"
  },
  {
    "tag": "sleeping hacks"
  },
  {
    "tag": "sleeping pills"
  },
  {
    "tag": "sleeping tips"
  },
  {
    "tag": "sleeping well"
  },
  {
    "tag": "sleepy"
  },
  {
    "tag": "slow internet"
  },
  {
    "tag": "small bombs"
  },
  {
    "tag": "small shoes"
  },
  {
    "tag": "smaller"
  },
  {
    "tag": "smart work"
  },
  {
    "tag": "smart working"
  },
  {
    "tag": "smell"
  },
  {
    "tag": "smell bad"
  },
  {
    "tag": "smelling bad"
  },
  {
    "tag": "smelling house"
  },
  {
    "tag": "smelly shoes"
  },
  {
    "tag": "smile"
  },
  {
    "tag": "smoking"
  },
  {
    "tag": "smooth skin"
  },
  {
    "tag": "smoothie"
  },
  {
    "tag": "snacking"
  },
  {
    "tag": "social connections"
  },
  {
    "tag": "social etiquettes"
  },
  {
    "tag": "social gatherings"
  },
  {
    "tag": "social media"
  },
  {
    "tag": "social media accounts"
  },
  {
    "tag": "social media hacks"
  },
  {
    "tag": "social media tips"
  },
  {
    "tag": "soda explosion"
  },
  {
    "tag": "solid"
  },
  {
    "tag": "solutions"
  },
  {
    "tag": "solve arguement"
  },
  {
    "tag": "solved answers"
  },
  {
    "tag": "song"
  },
  {
    "tag": "songs"
  },
  {
    "tag": "sorching sun"
  },
  {
    "tag": "sore throat"
  },
  {
    "tag": "sort mess"
  },
  {
    "tag": "sound"
  },
  {
    "tag": "sound sleep"
  },
  {
    "tag": "sound tips"
  },
  {
    "tag": "soundtracks"
  },
  {
    "tag": "space station"
  },
  {
    "tag": "spaghetti"
  },
  {
    "tag": "spam emails"
  },
  {
    "tag": "spark"
  },
  {
    "tag": "speakers"
  },
  {
    "tag": "spend"
  },
  {
    "tag": "spending money"
  },
  {
    "tag": "spicy food"
  },
  {
    "tag": "spider web"
  },
  {
    "tag": "spiders"
  },
  {
    "tag": "splinter hacks"
  },
  {
    "tag": "splinter tips"
  },
  {
    "tag": "sponge"
  },
  {
    "tag": "sponge hacks"
  },
  {
    "tag": "spoon"
  },
  {
    "tag": "spot"
  },
  {
    "tag": "spot difference"
  },
  {
    "tag": "spot things"
  },
  {
    "tag": "spray"
  },
  {
    "tag": "spraying"
  },
  {
    "tag": "spring"
  },
  {
    "tag": "sprinkles"
  },
  {
    "tag": "squished"
  },
  {
    "tag": "stack clothes"
  },
  {
    "tag": "stain remover"
  },
  {
    "tag": "stains on the sneakers"
  },
  {
    "tag": "starbucks"
  },
  {
    "tag": "stay calm"
  },
  {
    "tag": "stay fit"
  },
  {
    "tag": "stay focus"
  },
  {
    "tag": "stay fresh"
  },
  {
    "tag": "stay happy"
  },
  {
    "tag": "stay healthy"
  },
  {
    "tag": "stay hydrated"
  },
  {
    "tag": "stay positive"
  },
  {
    "tag": "stay safe"
  },
  {
    "tag": "stay strong"
  },
  {
    "tag": "staying hungry"
  },
  {
    "tag": "sticking paper"
  },
  {
    "tag": "stinky"
  },
  {
    "tag": "stinky shoes"
  },
  {
    "tag": "stomach ache"
  },
  {
    "tag": "stop hiccups"
  },
  {
    "tag": "stop sneezing"
  },
  {
    "tag": "stop suicide"
  },
  {
    "tag": "strangers"
  },
  {
    "tag": "streching"
  },
  {
    "tag": "street lights"
  },
  {
    "tag": "strength"
  },
  {
    "tag": "stress busters"
  },
  {
    "tag": "stress relief"
  },
  {
    "tag": "stressed"
  },
  {
    "tag": "strong passwords"
  },
  {
    "tag": "stucked gum"
  },
  {
    "tag": "study"
  },
  {
    "tag": "study hacks"
  },
  {
    "tag": "study partner"
  },
  {
    "tag": "study tips"
  },
  {
    "tag": "studying"
  },
  {
    "tag": "studying tips"
  },
  {
    "tag": "stuff"
  },
  {
    "tag": "stuffed animal"
  },
  {
    "tag": "stuffy noise"
  },
  {
    "tag": "stuffy nose"
  },
  {
    "tag": "subscriptions"
  },
  {
    "tag": "success"
  },
  {
    "tag": "success tip"
  },
  {
    "tag": "success tips"
  },
  {
    "tag": "sugar"
  },
  {
    "tag": "suitcase"
  },
  {
    "tag": "sunburn"
  },
  {
    "tag": "superstore tips"
  },
  {
    "tag": "support army"
  },
  {
    "tag": "surprise"
  },
  {
    "tag": "survival"
  },
  {
    "tag": "survival tips"
  },
  {
    "tag": "sushi"
  },
  {
    "tag": "sushi eating tips"
  },
  {
    "tag": "suspect"
  },
  {
    "tag": "suspecting someone"
  },
  {
    "tag": "swallow"
  },
  {
    "tag": "sweat less"
  },
  {
    "tag": "sweater"
  },
  {
    "tag": "swim hacks"
  },
  {
    "tag": "taco hack"
  },
  {
    "tag": "tacos"
  },
  {
    "tag": "take chance"
  },
  {
    "tag": "tape"
  },
  {
    "tag": "taste"
  },
  {
    "tag": "tasty"
  },
  {
    "tag": "tattoo"
  },
  {
    "tag": "tea bags"
  },
  {
    "tag": "tech"
  },
  {
    "tag": "tech hacks"
  },
  {
    "tag": "tech shopping"
  },
  {
    "tag": "tech support"
  },
  {
    "tag": "tech tips"
  },
  {
    "tag": "technology"
  },
  {
    "tag": "teeth"
  },
  {
    "tag": "tell lies"
  },
  {
    "tag": "tempo"
  },
  {
    "tag": "tempos"
  },
  {
    "tag": "tequila shots"
  },
  {
    "tag": "test"
  },
  {
    "tag": "test approaching"
  },
  {
    "tag": "testicular cancer"
  },
  {
    "tag": "testing"
  },
  {
    "tag": "tetris"
  },
  {
    "tag": "texh tips"
  },
  {
    "tag": "textbooks"
  },
  {
    "tag": "texted"
  },
  {
    "tag": "thawed container"
  },
  {
    "tag": "thighs"
  },
  {
    "tag": "things to remember"
  },
  {
    "tag": "thinking"
  },
  {
    "tag": "three words"
  },
  {
    "tag": "throwing frisbee"
  },
  {
    "tag": "thunderstorm"
  },
  {
    "tag": "tide hacks"
  },
  {
    "tag": "tied up"
  },
  {
    "tag": "tips"
  },
  {
    "tag": "tired"
  },
  {
    "tag": "togetherness"
  },
  {
    "tag": "toilet roll"
  },
  {
    "tag": "toilet seat"
  },
  {
    "tag": "tongue"
  },
  {
    "tag": "tongue tricks"
  },
  {
    "tag": "toothache pain"
  },
  {
    "tag": "toothpaste"
  },
  {
    "tag": "toothpaste hacks"
  },
  {
    "tag": "toothpaste tips"
  },
  {
    "tag": "toothpaste tricks"
  },
  {
    "tag": "towel"
  },
  {
    "tag": "toxin"
  },
  {
    "tag": "traeling guide"
  },
  {
    "tag": "transfer songs"
  },
  {
    "tag": "transfrmation"
  },
  {
    "tag": "trash bin hacks"
  },
  {
    "tag": "traveling"
  },
  {
    "tag": "traveling hacks"
  },
  {
    "tag": "traveling tips"
  },
  {
    "tag": "trending"
  },
  {
    "tag": "trends"
  },
  {
    "tag": "trick"
  },
  {
    "tag": "tricks"
  },
  {
    "tag": "trigger"
  },
  {
    "tag": "triggered"
  },
  {
    "tag": "truck drivers"
  },
  {
    "tag": "trust yourself"
  },
  {
    "tag": "truth"
  },
  {
    "tag": "twerking"
  },
  {
    "tag": "underwater"
  },
  {
    "tag": "undo on iPhone"
  },
  {
    "tag": "undo texts"
  },
  {
    "tag": "unlimited songs"
  },
  {
    "tag": "unlimited videos"
  },
  {
    "tag": "unsalted fries"
  },
  {
    "tag": "unseal the envelope"
  },
  {
    "tag": "unshrink"
  },
  {
    "tag": "unshrink clothes"
  },
  {
    "tag": "untangle headphones"
  },
  {
    "tag": "untangle knots"
  },
  {
    "tag": "upset stomach"
  },
  {
    "tag": "useful tips"
  },
  {
    "tag": "user"
  },
  {
    "tag": "vacuum cleaning tips"
  },
  {
    "tag": "valuable"
  },
  {
    "tag": "vanilla extract"
  },
  {
    "tag": "vaseline"
  },
  {
    "tag": "vending machine hacks"
  },
  {
    "tag": "vending machine tips"
  },
  {
    "tag": "vending machines"
  },
  {
    "tag": "video"
  },
  {
    "tag": "video hacks"
  },
  {
    "tag": "video recording"
  },
  {
    "tag": "video tricks"
  },
  {
    "tag": "videos"
  },
  {
    "tag": "vinegar"
  },
  {
    "tag": "vinegar hacks"
  },
  {
    "tag": "virus"
  },
  {
    "tag": "vodka hacks"
  },
  {
    "tag": "voicemail"
  },
  {
    "tag": "vomit"
  },
  {
    "tag": "wake up"
  },
  {
    "tag": "waking up"
  },
  {
    "tag": "walk"
  },
  {
    "tag": "walmart"
  },
  {
    "tag": "warm room"
  },
  {
    "tag": "warm water"
  },
  {
    "tag": "wash hands"
  },
  {
    "tag": "washing machine hacks"
  },
  {
    "tag": "washroom tips"
  },
  {
    "tag": "watch documentaries"
  },
  {
    "tag": "watching movie"
  },
  {
    "tag": "water"
  },
  {
    "tag": "water consumption"
  },
  {
    "tag": "watermelon"
  },
  {
    "tag": "watermelon juice"
  },
  {
    "tag": "wearing socks"
  },
  {
    "tag": "website hacks"
  },
  {
    "tag": "website tips"
  },
  {
    "tag": "websites"
  },
  {
    "tag": "wedding day"
  },
  {
    "tag": "weeds"
  },
  {
    "tag": "weight"
  },
  {
    "tag": "weird fonts"
  },
  {
    "tag": "welness"
  },
  {
    "tag": "wendy's"
  },
  {
    "tag": "werd stuff"
  },
  {
    "tag": "whiskey"
  },
  {
    "tag": "white glue tips"
  },
  {
    "tag": "whiter teeth"
  },
  {
    "tag": "wifi"
  },
  {
    "tag": "wikipedia"
  },
  {
    "tag": "window cleaning"
  },
  {
    "tag": "windows"
  },
  {
    "tag": "windows hacks"
  },
  {
    "tag": "windshield"
  },
  {
    "tag": "wine stains"
  },
  {
    "tag": "wine tips"
  },
  {
    "tag": "winshield hacks"
  },
  {
    "tag": "winter"
  },
  {
    "tag": "winters"
  },
  {
    "tag": "wipe weeds"
  },
  {
    "tag": "wipegum"
  },
  {
    "tag": "wise choice"
  },
  {
    "tag": "wise decision"
  },
  {
    "tag": "wise decision making"
  },
  {
    "tag": "woman-man"
  },
  {
    "tag": "woods"
  },
  {
    "tag": "words"
  },
  {
    "tag": "work mode"
  },
  {
    "tag": "work out"
  },
  {
    "tag": "workaholic"
  },
  {
    "tag": "working"
  },
  {
    "tag": "working mode"
  },
  {
    "tag": "workout"
  },
  {
    "tag": "world facts"
  },
  {
    "tag": "wrinkled clothes"
  },
  {
    "tag": "wrist watch"
  },
  {
    "tag": "writing"
  },
  {
    "tag": "wrong number"
  },
  {
    "tag": "wrong text"
  },
  {
    "tag": "yawning"
  },
  {
    "tag": "yogurt"
  },
  {
    "tag": "yogurt tips"
  },
  {
    "tag": "zipper"
  },
  {
    "tag": "zit"
  },
  {
    "tag": "zombie apocalypse"
  },
  {
    "tag": "zoo"
  },
  {
    "tag": "Disney tales"
  },
  {
    "tag": "frost bite"
  },
  {
    "tag": "fly free"
  },
  {
    "tag": "cure sunburns"
  },
  {
    "tag": "air pollution"
  },
  {
    "tag": "detoxification"
  },
  {
    "tag": "create font"
  },
  {
    "tag": "ventilation"
  },
  {
    "tag": "enhance personality"
  },
  {
    "tag": "whatsapp tips"
  },
  {
    "tag": "baking soda hacks"
  },
  {
    "tag": "jewlry hacks"
  },
  {
    "tag": "uncork bottle"
  },
  {
    "tag": "water balloons"
  },
  {
    "tag": "scammers"
  },
  {
    "tag": "hair color"
  },
  {
    "tag": "hair health"
  },
  {
    "tag": "cellulite"
  },
  {
    "tag": "refrigerator odour"
  },
  {
    "tag": "odour hacks"
  },
  {
    "tag": "measurements"
  },
  {
    "tag": "clean makeup brushes"
  },
  {
    "tag": "nail paint hacks"
  },
  {
    "tag": "cooking spray"
  },
  {
    "tag": "oily scalp"
  },
  {
    "tag": "grow nails"
  },
  {
    "tag": "shifting tips"
  },
  {
    "tag": "nail growth"
  },
  {
    "tag": "clear glass doors"
  },
  {
    "tag": "hair spray hacks"
  },
  {
    "tag": "hard brown sugar"
  },
  {
    "tag": "sweet tooth"
  },
  {
    "tag": "office tips"
  },
  {
    "tag": "toothbrush tips"
  },
  {
    "tag": "microwave hacks"
  },
  {
    "tag": "waffle recipes"
  },
  {
    "tag": "flavoured tea"
  },
  {
    "tag": "fog free"
  },
  {
    "tag": "rusting"
  },
  {
    "tag": "stay organised"
  },
  {
    "tag": "clean make up"
  },
  {
    "tag": "anti freeze"
  },
  {
    "tag": "fog hacks"
  },
  {
    "tag": "period cramps"
  },
  {
    "tag": "thawed breast milk"
  },
  {
    "tag": "leaning tips"
  },
  {
    "tag": "cure hot pepper burns"
  },
  {
    "tag": "dark underarms"
  },
  {
    "tag": "christmas"
  },
  {
    "tag": "rusted wrench"
  },
  {
    "tag": "earphones hacks"
  },
  {
    "tag": "gifting ideas"
  },
  {
    "tag": "save battery"
  },
  {
    "tag": "wooden furniture"
  },
  {
    "tag": "weekends"
  },
  {
    "tag": "cloud storage"
  },
  {
    "tag": "bobby pins"
  },
  {
    "tag": "baby oil hacks"
  },
  {
    "tag": "aromatherapy"
  },
  {
    "tag": "chopping onion"
  },
  {
    "tag": "shaving cream"
  },
  {
    "tag": "energy bills"
  },
  {
    "tag": "Whatsapp web"
  },
  {
    "tag": "refresh bath"
  },
  {
    "tag": "VPN"
  },
  {
    "tag": "carpet blot"
  },
  {
    "tag": "alarm hacks"
  },
  {
    "tag": "fonts"
  },
  {
    "tag": "fogging windshield"
  },
  {
    "tag": "tea tips"
  },
  {
    "tag": "shiny hair"
  },
  {
    "tag": "foundation hacks"
  },
  {
    "tag": "bubble wrap"
  },
  {
    "tag": "brown apple"
  },
  {
    "tag": "snapchat tricks"
  },
  {
    "tag": "heal cracked feet"
  },
  {
    "tag": "tea tricks"
  },
  {
    "tag": "body wash"
  },
  {
    "tag": "avail discounts"
  },
  {
    "tag": "cure mucus"
  },
  {
    "tag": "Instagram ttricks"
  },
  {
    "tag": "cocktails"
  },
  {
    "tag": "cure blemishes"
  },
  {
    "tag": "lemon juice tricks"
  },
  {
    "tag": "unwanted hair"
  },
  {
    "tag": "propose"
  },
  {
    "tag": "door hinges"
  },
  {
    "tag": "diagrams for school"
  },
  {
    "tag": "jewelry hacks"
  },
  {
    "tag": "Oreo McFlurry"
  },
  {
    "tag": "sticky notes"
  },
  {
    "tag": "storm windows"
  },
  {
    "tag": "diet plan"
  },
  {
    "tag": "refreshing"
  },
  {
    "tag": "dress perfectly"
  },
  {
    "tag": "color grenades"
  },
  {
    "tag": "wedding tips"
  },
  {
    "tag": "toilet cleaning"
  },
  {
    "tag": "DIY's"
  },
  {
    "tag": "bathroom hacks"
  },
  {
    "tag": "lip balm"
  },
  {
    "tag": "odourless fridge"
  },
  {
    "tag": "pollution"
  },
  {
    "tag": "white sneakers"
  },
  {
    "tag": "anti-glare glasses"
  },
  {
    "tag": "natral remedies"
  },
  {
    "tag": "paint stains"
  },
  {
    "tag": "interview"
  },
  {
    "tag": "treat herpes"
  },
  {
    "tag": "decoration"
  },
  {
    "tag": "swap services"
  },
  {
    "tag": "ghealth"
  },
  {
    "tag": "foggy window"
  },
  {
    "tag": "cool down laptop"
  },
  {
    "tag": "black tea"
  },
  {
    "tag": "breathing issue"
  },
  {
    "tag": "high heels"
  },
  {
    "tag": "clean vomit"
  },
  {
    "tag": "twins"
  },
  {
    "tag": "toilet paper rolls"
  },
  {
    "tag": "keyboard tips"
  },
  {
    "tag": "silica beads"
  },
  {
    "tag": "customization"
  },
  {
    "tag": "hard butter"
  },
  {
    "tag": "nail paint tricks"
  },
  {
    "tag": "find poems"
  },
  {
    "tag": "cold apartment"
  },
  {
    "tag": "zoom in"
  },
  {
    "tag": "standing case"
  },
  {
    "tag": "diaper bags"
  },
  {
    "tag": "clean sneakers"
  },
  {
    "tag": "baby oil tips"
  },
  {
    "tag": "coconut milk"
  },
  {
    "tag": "relieve chest pain"
  },
  {
    "tag": "face mask"
  },
  {
    "tag": "acetone tips"
  },
  {
    "tag": "shower cap"
  },
  {
    "tag": "storage tips"
  },
  {
    "tag": "safe browsing"
  },
  {
    "tag": "save video"
  },
  {
    "tag": "pilow cases"
  },
  {
    "tag": "edit photos"
  },
  {
    "tag": "untangle jewlry"
  },
  {
    "tag": "popping margarita"
  },
  {
    "tag": "pdychology"
  },
  {
    "tag": "first drafts"
  },
  {
    "tag": "DIT's"
  },
  {
    "tag": "breakfast tips"
  },
  {
    "tag": "not making"
  },
  {
    "tag": "ceaning tips"
  },
  {
    "tag": "storage"
  },
  {
    "tag": "cheese shots"
  },
  {
    "tag": "learn"
  },
  {
    "tag": "coconut oil hacks"
  },
  {
    "tag": "itchy skin"
  },
  {
    "tag": "mozzarella cheese"
  },
  {
    "tag": "blow dryer"
  },
  {
    "tag": "laundry bag"
  },
  {
    "tag": "tea tree oil"
  },
  {
    "tag": "waterproof matches"
  },
  {
    "tag": "electric blanket"
  },
  {
    "tag": "tutor"
  },
  {
    "tag": "relationship tips"
  },
  {
    "tag": "arguments"
  },
  {
    "tag": "peaceful sleep"
  },
  {
    "tag": "coca cola tips"
  },
  {
    "tag": "silence"
  },
  {
    "tag": "microwave tips"
  },
  {
    "tag": "study tip"
  },
  {
    "tag": "old cassette cases"
  },
  {
    "tag": "humanity"
  },
  {
    "tag": "nutella pancakes"
  },
  {
    "tag": "special day"
  },
  {
    "tag": "wine shots"
  },
  {
    "tag": "thicker eyelashes"
  },
  {
    "tag": "congestion"
  },
  {
    "tag": "pickle juice"
  },
  {
    "tag": "dessert"
  }
]